<svg width="119" height="27" viewBox="0 0 119 27" fill="none" xmlns="http://www.w3.org/2000/svg">
<path fill-rule="evenodd" clip-rule="evenodd" d="M22.7232 15.8663C22.742 16.2701 22.6107 16.6666 22.3544 16.9793C22.0981 17.2919 21.7351 17.4985 21.3355 17.5593C19.7535 17.8368 16.4323 18.0057 13.6499 18.0057C10.8676 18.0057 7.54636 17.8368 5.96439 17.5593C5.56494 17.4981 5.20224 17.2913 4.94606 16.9788C4.68989 16.6662 4.55833 16.27 4.57669 15.8663V10.5954C4.5815 10.1973 4.72146 9.81269 4.97361 9.50465C5.22576 9.19661 5.57513 8.98341 5.96439 8.90005C6.76627 8.79258 7.57456 8.74003 8.38361 8.74277C8.46464 8.74444 8.54447 8.76259 8.61825 8.79612C8.69203 8.82965 8.75821 8.87786 8.81275 8.93781C8.86728 8.99776 8.90904 9.06818 8.93546 9.1448C8.96189 9.22141 8.97243 9.30261 8.96644 9.38343V13.0701C10.6016 13.0701 12.0217 12.9706 13.6615 12.9706C15.3013 12.9706 16.7214 13.0631 18.3542 13.0701V9.38343C18.3482 9.30261 18.3588 9.22141 18.3852 9.1448C18.4116 9.06818 18.4534 8.99776 18.5079 8.93781C18.5625 8.87786 18.6286 8.82965 18.7024 8.79612C18.7762 8.76259 18.856 8.74444 18.9371 8.74277C19.743 8.74054 20.5482 8.79309 21.347 8.90005C21.7363 8.98341 22.0856 9.19661 22.3378 9.50465C22.5899 9.81269 22.7299 10.1973 22.7347 10.5954L22.7232 15.8663ZM13.6569 0.000271345C10.9832 -0.0166768 8.36479 0.760656 6.1335 2.23371C3.90221 3.70677 2.15857 5.80921 1.12365 8.27447C0.0887326 10.7397 -0.190852 13.4568 0.320344 16.0811C0.83154 18.7055 2.11049 21.119 3.99505 23.0155C5.8796 24.9121 8.28489 26.2064 10.9059 26.7343C13.527 27.2621 16.2458 26.9998 18.7176 25.9806C21.1893 24.9614 23.3028 23.2312 24.79 21.0093C26.2773 18.7874 27.0712 16.1739 27.0713 13.5003C27.0771 11.733 26.7347 9.9819 26.0636 8.34697C25.3926 6.71204 24.406 5.22532 23.1604 3.97169C21.9147 2.71807 20.4343 1.72211 18.8036 1.04069C17.173 0.359265 15.4241 0.00572959 13.6569 0.000271345V0.000271345Z" fill="white"/>
<path fill-rule="evenodd" clip-rule="evenodd" d="M41.2767 19.9764C37.1136 19.9764 35.0205 16.9327 35.0205 13.5837C35.0205 10.2347 37.183 7.22803 41.316 7.22803C42.9026 7.22803 44.0267 7.57726 44.9796 8.21098L43.7954 10.1792C43.0502 9.68539 42.1702 9.43489 41.2767 9.46222C39.0471 9.46222 37.8491 11.2639 37.8491 13.5097C37.8491 15.8225 38.9916 17.7213 41.3183 17.7213C42.309 17.7418 43.2755 17.4145 44.0498 16.7962L45.1415 18.6904C44.5216 19.2571 43.0599 19.9879 41.279 19.9879" fill="white"/>
<path fill-rule="evenodd" clip-rule="evenodd" d="M50.1534 19.9765C47.0473 19.9765 45.6758 17.6058 45.6758 15.2791C45.6758 12.9524 47.0288 10.5193 50.1372 10.5193C53.2457 10.5193 54.6658 12.8714 54.6658 15.2005C54.6658 17.4925 53.2781 19.9765 50.1534 19.9765V19.9765ZM50.1049 12.4042C48.768 12.4042 48.3378 13.5422 48.3378 15.2005C48.3378 16.8588 48.8605 18.0545 50.1881 18.0545C51.5157 18.0545 51.9991 16.942 51.9991 15.2791C51.9991 13.6162 51.4463 12.4042 50.0979 12.4042" fill="white"/>
<path fill-rule="evenodd" clip-rule="evenodd" d="M58.5993 10.7249V16.5069C58.5993 17.3951 58.9046 17.8368 59.7557 17.8368C60.6531 17.8368 61.3423 16.9718 61.5227 16.7521V10.7249H64.0344V17.0944C64.0242 17.9826 64.1017 18.8696 64.2657 19.7426H61.8095C61.7112 19.3505 61.6493 18.9503 61.6245 18.5468C61.2927 18.9935 60.8603 19.3556 60.3625 19.604C59.8646 19.8523 59.3152 19.9798 58.7589 19.9762C56.7999 19.9762 56.0898 18.7018 56.0898 17.0481V10.7249H58.5993Z" fill="white"/>
<path fill-rule="evenodd" clip-rule="evenodd" d="M70.1868 19.9765C67.3212 19.9765 65.5449 18.0776 65.5449 15.2583C65.5449 12.2308 67.5386 10.5193 70.2608 10.5193C71.6994 10.5193 72.5597 10.9541 72.9807 11.2316L72.1828 12.9686C71.6331 12.611 70.9879 12.4288 70.3325 12.4459C68.9448 12.4459 68.1954 13.5422 68.1954 15.182C68.1954 16.8218 68.9032 18.0129 70.388 18.0129C71.0577 18.0214 71.7156 17.8358 72.2822 17.4786L73.0431 19.1716C72.6338 19.4329 71.8127 19.9765 70.1868 19.9765Z" fill="white"/>
<path fill-rule="evenodd" clip-rule="evenodd" d="M79.7643 19.7449V13.9628C79.7643 13.077 79.459 12.6353 78.6217 12.6353C77.7081 12.6353 77.0212 13.4841 76.8385 13.7223V19.7449H74.3291V6.43921H76.8431V11.8073C77.1831 11.4015 77.6077 11.075 78.0871 10.8504C78.5665 10.6259 79.0892 10.5089 79.6185 10.5075C81.5775 10.5075 82.2899 11.7726 82.2899 13.4401V19.7449H79.7643Z" fill="white"/>
<path fill-rule="evenodd" clip-rule="evenodd" d="M86.8303 6.43921V11.4372C87.4045 10.8567 88.1834 10.5245 88.9998 10.5121C91.2085 10.5121 92.772 12.0455 92.772 15.1725C92.772 18.2994 90.7205 19.9762 88.0238 19.9762C85.9954 19.9762 84.7581 19.4628 84.3232 19.2546V6.43921H86.8303ZM86.8303 17.7836C87.2131 17.92 87.6175 17.9858 88.0238 17.9779C89.3236 17.9779 90.1053 17.0181 90.1053 15.1678C90.1053 13.5026 89.5479 12.5127 88.2828 12.5127C88.0067 12.5194 87.7349 12.5823 87.484 12.6976C87.233 12.813 87.0083 12.9783 86.8234 13.1834L86.8303 17.7836Z" fill="white"/>
<path fill-rule="evenodd" clip-rule="evenodd" d="M99.0071 19.745C98.9269 19.4313 98.8765 19.1107 98.8568 18.7875C98.5568 19.1574 98.1782 19.456 97.7486 19.6616C97.319 19.8672 96.8491 19.9747 96.3728 19.9763C94.8556 19.9763 93.6807 19.0512 93.6807 17.4322C93.6807 15.0916 96.0536 14.2266 98.4197 14.2266H98.725V13.7178C98.725 12.9707 98.4243 12.5128 97.3072 12.5128C96.483 12.5359 95.6898 12.832 95.0522 13.3547L93.9582 11.812C94.4948 11.3217 95.679 10.5076 97.5894 10.5076C100.055 10.5076 101.211 11.4605 101.211 13.8658V17.0321C101.202 17.9433 101.292 18.8528 101.477 19.745H99.0071ZM98.725 15.7739H98.4197C97.032 15.7739 96.086 16.1879 96.086 17.2102C96.086 17.8508 96.5925 18.1353 97.143 18.1353C97.4459 18.1308 97.7442 18.0607 98.0173 17.9297C98.2904 17.7988 98.5319 17.6101 98.725 17.3767V15.7739Z" fill="white"/>
<path fill-rule="evenodd" clip-rule="evenodd" d="M105.737 19.9765C104.118 19.9765 103.102 19.4954 102.557 19.1254L103.394 17.3538C104.039 17.8023 104.799 18.0581 105.584 18.0916C106.509 18.0916 107.016 17.8279 107.016 17.3144C107.016 16.7247 106.007 16.5674 104.747 15.9545C103.523 15.3555 102.797 14.6593 102.797 13.3017C102.797 11.5971 104.132 10.5263 106.153 10.5263C107.157 10.4968 108.149 10.7449 109.021 11.2433L108.151 12.9756C107.582 12.6188 106.927 12.4237 106.255 12.4112C105.408 12.4112 105.052 12.7119 105.052 13.1745C105.052 13.7666 105.871 13.91 106.889 14.3309C108.297 14.8883 109.289 15.5451 109.289 17.06C109.289 18.9658 107.946 19.9649 105.737 19.9649" fill="white"/>
<path fill-rule="evenodd" clip-rule="evenodd" d="M115.107 18.0799C115.92 18.0876 116.719 17.875 117.42 17.4647L118.223 19.0837C117.624 19.4329 116.717 19.9765 114.874 19.9765C111.885 19.9765 110.186 18.0869 110.186 15.2051C110.186 12.3233 112.142 10.5193 114.615 10.5193C117.418 10.5193 118.778 12.4921 118.475 15.8619H112.871C112.989 17.2057 113.671 18.0915 115.107 18.0915V18.0799ZM116.065 14.1481C116.046 13.1513 115.655 12.3418 114.578 12.3418C113.585 12.3418 113.021 12.9848 112.857 14.1481H116.065Z" fill="white"/>
</svg>
